{
  "compilerOptions": {
    "baseUrl": ".",
    "paths": {
      "Views": ["src/Views"],
      "Navigation": ["src/Navigation"],
      "Redux": ["src/Redux"],
      "Resources": ["src/Resources"],
      "Sagas": ["src/Sagas"],
      "Services": ["src/Services"],
      "Theme": ["src/Theme"],
      "Variables": ["src/Theme/Variables"],
      "Fonts": ["src/Theme/Fonts"],
      "Images": ["src/Images"],
      "Data": ["src/Data"],
      "Config": ["src/Config"],
      "I18n": ["src/I18n"],
      "Components": ["src/Components"],
      "Helpers": ["src/Helpers"],
      "WebSocket": ["src/WebSocket"],
      "Notification": ["src/Notification"],

      "Views/*": ["src/Views/*"],
      "Navigation/*": ["src/Navigation/*"],
      "Redux/*": ["src/Redux/*"],
      "Resources/*": ["src/Resources/*"],
      "Sagas/*": ["src/Sagas/*"],
      "Services/*": ["src/Services/*"],
      "Theme/*": ["src/Theme/*"],
      "Variables/*": ["src/Theme/Variables/*"],
      "Fonts/*": ["src/Theme/Fonts/*"],
      "Images/*": ["src/Images/*"],
      "Data/*": ["src/Data/*"],
      "Config/*": ["src/Config/*"],
      "I18n/*": ["src/I18n/*"],
      "Components/*": ["src/Components/*"],
      "Helpers/*": ["src/Helpers/*"],
      "WebSocket/*": ["src/WebSocket/*"],
      "Notification/*": ["src/Notification/*"]
    }
  },
  "include": ["src"]
}
