<?xml version="1.0" standalone="no"?>
<!DOCTYPE svg PUBLIC "-//W3C//DTD SVG 20010904//EN"
 "http://www.w3.org/TR/2001/REC-SVG-20010904/DTD/svg10.dtd">
<svg version="1.0" xmlns="http://www.w3.org/2000/svg"
 width="498.000000pt" height="288.000000pt" viewBox="0 0 498.000000 288.000000"
 preserveAspectRatio="xMidYMid meet">
<metadata>
Created by potrace 1.15, written by Peter Selinger 2001-2017
</metadata>
<g transform="translate(0.000000,288.000000) scale(0.100000,-0.100000)"
fill="#000000" stroke="none">
<path d="M2425 2298 c-69 -25 -105 -85 -105 -175 0 -24 -4 -43 -9 -43 -20 0
-18 -30 4 -76 14 -27 25 -54 25 -60 0 -7 13 -26 29 -43 27 -29 30 -46 3 -19
-9 9 -12 4 -12 -23 0 -35 -1 -36 -85 -73 l-85 -37 -28 21 c-33 25 -83 28 -145
9 -45 -13 -46 -14 -29 -32 16 -19 16 -19 -23 0 -80 40 -152 37 -203 -9 -20
-19 -24 -20 -19 -5 6 15 3 16 -13 7 -10 -5 -20 -10 -23 -10 -13 0 47 216 72
256 19 30 22 32 78 30 102 -3 122 18 91 97 -10 25 -14 27 -68 27 -93 0 -153
-29 -185 -90 -7 -14 -37 -54 -65 -90 -62 -77 -103 -159 -127 -254 -19 -77 -25
-62 59 -129 22 -17 57 -31 94 -38 32 -6 82 -17 111 -26 46 -14 62 -15 137 -3
112 17 120 12 191 -129 59 -118 75 -138 75 -94 0 27 2 26 28 -17 16 -25 35
-66 44 -93 14 -43 14 -46 -1 -35 -9 7 -22 19 -29 28 -12 13 -13 1 -7 -71 5
-58 3 -93 -4 -108 l-12 -21 286 0 286 0 -12 21 c-7 15 -9 50 -4 108 l7 86 -27
-25 -27 -25 7 30 c10 40 39 105 59 130 15 19 15 19 16 -10 0 -26 2 -27 14 -15
8 8 37 61 65 117 30 60 61 109 76 119 25 17 37 16 166 -3 22 -3 62 3 103 16
38 12 77 21 89 21 28 0 94 34 136 70 l34 29 -17 66 c-24 97 -65 179 -132 267
-32 43 -67 89 -77 103 -25 35 -81 61 -148 68 -66 8 -83 -2 -97 -56 -10 -34 -8
-39 15 -54 15 -10 47 -17 86 -17 61 -1 62 -1 84 -41 12 -22 28 -65 34 -95 6
-30 17 -76 24 -102 14 -52 13 -53 -15 -38 -16 9 -19 8 -13 -7 5 -14 1 -13 -19
5 -50 46 -138 50 -208 10 -34 -20 -35 -20 -17 -1 17 20 16 21 -43 37 -65 18
-105 13 -140 -19 -15 -14 -26 -12 -103 21 -84 36 -87 38 -87 70 0 27 -3 32
-17 27 -13 -4 -10 3 10 24 15 16 27 35 27 41 0 7 9 30 20 52 21 41 26 80 11
80 -4 0 -11 30 -14 67 -7 70 -22 101 -68 136 -31 23 -94 30 -134 15z"/>
<path d="M1178 739 c-15 -8 -18 -25 -18 -108 0 -75 4 -102 15 -111 23 -19 45
-4 45 30 0 25 4 30 23 30 17 0 28 -10 40 -35 17 -36 34 -44 55 -23 8 8 7 20
-4 46 -10 24 -11 39 -4 46 14 14 12 78 -4 99 -24 32 -112 47 -148 26z"/>
<path d="M1463 742 c-14 -9 -103 -187 -103 -206 0 -13 20 -26 39 -26 4 0 13
11 19 25 10 21 18 25 57 25 39 0 47 -4 57 -25 12 -26 17 -29 42 -19 24 9 20
25 -31 129 -47 93 -60 109 -80 97z"/>
<path d="M1703 739 c-9 -9 -13 -46 -13 -110 0 -115 6 -124 81 -117 62 6 100
33 118 84 12 34 11 44 -2 76 -8 20 -27 44 -40 53 -34 22 -128 31 -144 14z"/>
<path d="M1952 738 c-39 -19 -42 -102 -4 -115 9 -3 32 -12 51 -20 33 -13 34
-15 18 -31 -14 -14 -20 -14 -35 -4 -32 23 -44 25 -59 9 -14 -14 -13 -18 10
-41 52 -52 147 -20 147 48 0 32 -25 66 -48 66 -6 0 -23 5 -38 10 -25 10 -26
12 -12 26 13 13 20 14 38 4 18 -10 25 -9 39 5 15 15 14 18 -8 36 -26 21 -64
24 -99 7z"/>
<path d="M2187 744 c-4 -4 -7 -16 -7 -26 0 -14 8 -18 40 -18 l39 0 3 -92 c3
-82 5 -93 22 -96 28 -6 36 15 36 106 l0 82 41 0 c36 0 40 2 37 23 -3 21 -8 22
-104 25 -55 1 -103 0 -107 -4z"/>
<path d="M2432 742 c-9 -6 -12 -37 -10 -118 3 -101 4 -109 23 -109 14 0 21 8
25 30 8 46 45 47 67 1 17 -37 28 -42 53 -26 12 7 12 14 2 44 -11 29 -11 43 -1
71 17 45 1 81 -46 101 -38 15 -93 18 -113 6z"/>
<path d="M2935 736 c-50 -22 -70 -52 -70 -106 0 -40 5 -54 29 -79 31 -32 80
-47 118 -37 40 10 51 22 43 45 -6 20 -11 21 -51 15 -53 -8 -84 13 -84 56 0 43
31 64 85 56 37 -6 46 -4 51 9 15 38 -67 66 -121 41z"/>
<path d="M3097 738 c-23 -13 -25 -199 -2 -218 25 -21 45 -4 45 37 l0 37 43
-42 c30 -29 49 -41 60 -36 27 10 20 35 -20 76 l-37 38 37 38 c40 41 47 66 20
77 -13 4 -29 -5 -56 -34 -21 -23 -40 -41 -42 -41 -3 0 -5 15 -5 34 0 37 -16
50 -43 34z"/>
<path d="M3532 741 c-6 -3 -12 -33 -14 -66 l-3 -60 -45 62 c-36 50 -50 62 -72
63 l-28 0 0 -110 c0 -90 3 -112 15 -116 26 -10 44 15 47 68 l3 51 48 -62 c70
-91 81 -84 85 55 2 87 0 113 -11 117 -8 3 -19 2 -25 -2z"/>
<path d="M3653 730 c-41 -24 -53 -48 -53 -102 0 -75 57 -125 132 -115 57 8 68
21 68 83 l0 54 -50 0 c-43 0 -50 -3 -50 -19 0 -13 8 -21 22 -23 13 -2 24 -11
26 -20 5 -26 -52 -24 -78 2 -24 24 -25 48 -4 79 14 19 23 22 68 19 46 -3 51
-1 54 18 2 17 -5 24 -29 33 -45 16 -69 14 -106 -9z"/>
<path d="M2660 638 c-38 -77 -47 -104 -39 -115 18 -20 38 -16 51 12 10 21 18
25 58 25 40 0 48 -4 58 -25 13 -28 33 -32 51 -12 17 22 -81 217 -109 217 -16
0 -31 -22 -70 -102z"/>
</g>
</svg>
